-- Merging decision tree log ---
manifest
ADDED from AndroidManifest.xml:2:1
	xmlns:android
		ADDED from AndroidManifest.xml:2:11
	package
		ADDED from AndroidManifest.xml:3:5
		INJECTED from AndroidManifest.xml:0:0
		INJECTED from AndroidManifest.xml:0:0
	android:versionName
		INJECTED from AndroidManifest.xml:0:0
		INJECTED from AndroidManifest.xml:0:0
	android:versionCode
		INJECTED from AndroidManifest.xml:0:0
		INJECTED from AndroidManifest.xml:0:0
uses-permission#android.permission.ACCESS_COARSE_LOCATION
ADDED from AndroidManifest.xml:5:5
	android:name
		ADDED from AndroidManifest.xml:5:22
uses-permission#android.permission.ACCESS_FINE_LOCATION
ADDED from AndroidManifest.xml:7:5
	android:name
		ADDED from AndroidManifest.xml:7:22
uses-permission#android.permission.ACCESS_WIFI_STATE
ADDED from AndroidManifest.xml:9:5
	android:name
		ADDED from AndroidManifest.xml:9:22
uses-permission#android.permission.ACCESS_NETWORK_STATE
ADDED from AndroidManifest.xml:11:5
	android:name
		ADDED from AndroidManifest.xml:11:22
uses-permission#android.permission.CHANGE_WIFI_STATE
ADDED from AndroidManifest.xml:13:5
	android:name
		ADDED from AndroidManifest.xml:13:22
uses-permission#android.permission.READ_PHONE_STATE
ADDED from AndroidManifest.xml:15:5
	android:name
		ADDED from AndroidManifest.xml:15:22
uses-permission#android.permission.WRITE_EXTERNAL_STORAGE
ADDED from AndroidManifest.xml:17:5
	android:name
		ADDED from AndroidManifest.xml:17:22
uses-permission#android.permission.INTERNET
ADDED from AndroidManifest.xml:19:5
	android:name
		ADDED from AndroidManifest.xml:19:22
uses-permission#android.permission.MOUNT_UNMOUNT_FILESYSTEMS
ADDED from AndroidManifest.xml:20:5
	android:name
		ADDED from AndroidManifest.xml:20:22
uses-permission#android.permission.READ_LOGS
ADDED from AndroidManifest.xml:22:5
	android:name
		ADDED from AndroidManifest.xml:22:22
uses-permission#android.permission.VIBRATE
ADDED from AndroidManifest.xml:24:5
	android:name
		ADDED from AndroidManifest.xml:24:22
uses-permission#android.permission.WAKE_LOCK
ADDED from AndroidManifest.xml:25:5
	android:name
		ADDED from AndroidManifest.xml:25:22
uses-permission#android.permission.WRITE_SETTINGS
ADDED from AndroidManifest.xml:26:5
	android:name
		ADDED from AndroidManifest.xml:26:22
application
ADDED from AndroidManifest.xml:28:5
MERGED from PaiduihaoAndroid:location:unspecified:11:5
MERGED from com.android.support:appcompat-v7:20.0.0:17:5
MERGED from com.android.support:support-v4:20.0.0:17:5
MERGED from it.sephiroth.android.library.horizontallistview:library:1.2.1:5:5
MERGED from PaiduihaoAndroid:search:unspecified:11:5
MERGED from com.android.support:appcompat-v7:20.0.0:17:5
MERGED from com.android.support:support-v4:20.0.0:17:5
MERGED from PaiduihaoAndroid:Institution:unspecified:11:5
MERGED from com.android.support:appcompat-v7:20.0.0:17:5
MERGED from com.android.support:support-v4:20.0.0:17:5
MERGED from com.android.support:appcompat-v7:20.0.0:17:5
MERGED from com.android.support:support-v4:20.0.0:17:5
MERGED from com.android.support:gridlayout-v7:20.0.0:17:5
MERGED from com.android.support:support-v4:20.0.0:17:5
MERGED from com.android.support:support-v4:20.0.0:17:5
MERGED from it.sephiroth.android.library.horizontallistview:library:1.2.1:5:5
	android:label
		ADDED from AndroidManifest.xml:31:9
	android:allowBackup
		ADDED from AndroidManifest.xml:29:9
	android:icon
		ADDED from AndroidManifest.xml:30:9
	android:theme
		ADDED from AndroidManifest.xml:32:9
service#com.baidu.location.f
ADDED from AndroidManifest.xml:36:9
	android:process
		ADDED from AndroidManifest.xml:39:13
	android:enabled
		ADDED from AndroidManifest.xml:38:13
	android:name
		ADDED from AndroidManifest.xml:37:13
intent-filter#com.baidu.location.service_v2.2
ADDED from AndroidManifest.xml:40:13
action#com.baidu.location.service_v2.2
ADDED from AndroidManifest.xml:41:17
	android:name
		ADDED from AndroidManifest.xml:41:25
meta-data#com.baidu.lbsapi.API_KEY
ADDED from AndroidManifest.xml:47:9
	android:name
		ADDED from AndroidManifest.xml:48:13
	android:value
		ADDED from AndroidManifest.xml:49:13
activity#cn.yinhua.ishare.app.MainActivity
ADDED from AndroidManifest.xml:51:9
	android:windowSoftInputMode
		ADDED from AndroidManifest.xml:54:13
	android:label
		ADDED from AndroidManifest.xml:53:13
	android:hardwareAccelerated
		ADDED from AndroidManifest.xml:55:13
	android:name
		ADDED from AndroidManifest.xml:52:13
intent-filter#android.intent.action.MAIN+android.intent.category.LAUNCHER
ADDED from AndroidManifest.xml:58:13
action#android.intent.action.MAIN
ADDED from AndroidManifest.xml:59:17
	android:name
		ADDED from AndroidManifest.xml:59:25
category#android.intent.category.LAUNCHER
ADDED from AndroidManifest.xml:61:17
	android:name
		ADDED from AndroidManifest.xml:61:27
activity#cn.yinhua.ishare.app.queue.QueueActivity
ADDED from AndroidManifest.xml:64:9
	android:windowSoftInputMode
		ADDED from AndroidManifest.xml:67:13
	android:label
		ADDED from AndroidManifest.xml:66:13
	android:name
		ADDED from AndroidManifest.xml:65:13
meta-data#android.support.PARENT_ACTIVITY
ADDED from AndroidManifest.xml:68:13
	android:name
		ADDED from AndroidManifest.xml:69:17
	android:value
		ADDED from AndroidManifest.xml:70:17
activity#cn.yinhua.ishare.app.queue.SubsActivity
ADDED from AndroidManifest.xml:72:9
	android:label
		ADDED from AndroidManifest.xml:74:13
	android:name
		ADDED from AndroidManifest.xml:73:13
uses-sdk
INJECTED from AndroidManifest.xml:0:0 reason: use-sdk injection requested
MERGED from PaiduihaoAndroid:location:unspecified:7:5
MERGED from com.android.support:appcompat-v7:20.0.0:16:5
MERGED from com.android.support:support-v4:20.0.0:16:5
MERGED from it.sephiroth.android.library.horizontallistview:library:1.2.1:3:5
MERGED from PaiduihaoAndroid:search:unspecified:7:5
MERGED from com.android.support:appcompat-v7:20.0.0:16:5
MERGED from com.android.support:support-v4:20.0.0:16:5
MERGED from PaiduihaoAndroid:Institution:unspecified:7:5
MERGED from com.android.support:appcompat-v7:20.0.0:16:5
MERGED from com.android.support:support-v4:20.0.0:16:5
MERGED from com.android.support:appcompat-v7:20.0.0:16:5
MERGED from com.android.support:support-v4:20.0.0:16:5
MERGED from com.android.support:gridlayout-v7:20.0.0:16:5
MERGED from com.android.support:support-v4:20.0.0:16:5
MERGED from com.android.support:support-v4:20.0.0:16:5
MERGED from it.sephiroth.android.library.horizontallistview:library:1.2.1:3:5
	android:targetSdkVersion
		INJECTED from AndroidManifest.xml:0:0
		INJECTED from AndroidManifest.xml:0:0
	android:minSdkVersion
		INJECTED from AndroidManifest.xml:0:0
		INJECTED from AndroidManifest.xml:0:0
activity#cn.yinhua.ishare.location.MainLocActivity
ADDED from PaiduihaoAndroid:location:unspecified:15:9
	android:windowSoftInputMode
		ADDED from PaiduihaoAndroid:location:unspecified:18:13
	android:label
		ADDED from PaiduihaoAndroid:location:unspecified:17:13
	android:name
		ADDED from PaiduihaoAndroid:location:unspecified:16:13
meta-data#android.app.default_searchable
ADDED from PaiduihaoAndroid:search:unspecified:15:9
	android:name
		ADDED from PaiduihaoAndroid:search:unspecified:16:13
	android:value
		ADDED from PaiduihaoAndroid:search:unspecified:17:13
activity#cn.yinhua.ishare.search.SearchActivity
ADDED from PaiduihaoAndroid:search:unspecified:19:9
	android:windowSoftInputMode
		ADDED from PaiduihaoAndroid:search:unspecified:22:13
	android:name
		ADDED from PaiduihaoAndroid:search:unspecified:20:13
	android:launchMode
		ADDED from PaiduihaoAndroid:search:unspecified:21:13
meta-data#android.app.searchable
ADDED from PaiduihaoAndroid:search:unspecified:26:13
	android:resource
		ADDED from PaiduihaoAndroid:search:unspecified:28:17
	android:name
		ADDED from PaiduihaoAndroid:search:unspecified:27:17
intent-filter#android.intent.action.SEARCH
ADDED from PaiduihaoAndroid:search:unspecified:33:13
action#android.intent.action.SEARCH
ADDED from PaiduihaoAndroid:search:unspecified:34:17
	android:name
		ADDED from PaiduihaoAndroid:search:unspecified:34:25
provider#cn.yinhua.ishare.search.SearchSuggestionProvider
ADDED from PaiduihaoAndroid:search:unspecified:38:9
	android:authorities
		ADDED from PaiduihaoAndroid:search:unspecified:40:13
	android:name
		ADDED from PaiduihaoAndroid:search:unspecified:39:13
activity#cn.yinhua.ishare.institution.InstituionCrActivity
ADDED from PaiduihaoAndroid:Institution:unspecified:15:9
	android:label
		ADDED from PaiduihaoAndroid:Institution:unspecified:17:13
	android:name
		ADDED from PaiduihaoAndroid:Institution:unspecified:16:13
